^C:\PROGRAMMING\CPLUSPLUS\2013SPRING\QUEUE\TESTQ\TESTQ\DEBUG\MAIN.OBJ
C:\PROGRAMMING\CPLUSPLUS\2013SPRING\QUEUE\TESTQ\DEBUG\TESTQ.ILK
C:\PROGRAMMING\CPLUSPLUS\2013SPRING\QUEUE\TESTQ\DEBUG\TESTQ.EXE
C:\PROGRAMMING\CPLUSPLUS\2013SPRING\QUEUE\TESTQ\DEBUG\TESTQ.PDB
